Help for package didimputation
…
did_imputation(data = df_hom, yname = "dep_var", gname = "g",
               tname = "year", idname = "unit")
#> # A tibble: 1 x 6
#>   lhs     term  estimate std.error conf.low conf.high
#>   <chr>   <chr>    <dbl>     <dbl>    <dbl>     <dbl>
#> 1 dep_var treat     2.00    0.0182     1.97      2.04

Event Study

Or you can use relative-treatment indicators to estimate an event study estimate

did_imputation(data = df_hom, yname = "dep_var", gname = "g",
               tname = "year", idname = "unit", horizon=TRUE)
#> # A tibble: 21 x 6
#>    lhs     term  estimate std.error conf.low conf.high
#>    <chr>   <chr>    <dbl>     <dbl>    <dbl>     <dbl>
#>  1 dep_var 0         1.97    0.0425     1.89      2.05
#>  2 dep_var 1         2.05    0.0434     1.97      2.14
#>  3 dep_var 2         2.03    0.0432     1.95      2.12
#>  4 dep_var 3         1.97    0.0428     1.88      2.05
#>  5 dep_var 4         1.97    0.0420     1.88      2.05
#>  6 dep_var 5         2.03    0.0423     1.95      2.11
#>  7 dep_var 6         2.04    0.0450     1.95      2.13
#>  8 dep_var 7         2.00    0.0437     1.91      2.08
#>  9 dep_var 8         2.02    0.0440     1.93      2.10
#> 10 dep_var 9         1.96    0.0440     1.87      2.04
#> # ... with 11 more rows
…
