Help for package epidatr
…
Description

Creates a helper object that can use auto-complete to help find COVIDcast
sources and signals. The COVIDcast endpoint of
the Epidata API contains many separate data sources and signals. It can be
difficult to find the name of the signal you're looking for, so you can use
covidcast_epidata to get help with finding sources and functions without
leaving R.

The covidcast_epidata() function fetches a list of all signals, and returns
an object containing fields for every signal:

epidata <- covidcast_epidata()
epidata$signals
#> # A tibble: 443 x 3
#>    source        signal                        short_description                
#>    <chr>         <chr>                         <chr>                            
#>  1 chng          smoothed_outpatient_cli       Estimated percentage of outpatie~
#>  2 chng          smoothed_adj_outpatient_cli   Estimated percentage of outpatie~
#>  3 chng          smoothed_outpatient_covid     COVID-Confirmed Doctor Visits    
#>  4 chng          smoothed_adj_outpatient_covid COVID-Confirmed Doctor Visits    
#>  5 chng          smoothed_outpatient_flu       Estimated percentage of outpatie~
#>  6 chng          smoothed_adj_outpatient_flu   Estimated percentage of outpatie~
#>  7 covid-act-now pcr_specimen_positivity_rate  Proportion of PCR specimens test~
#>  8 covid-act-now pcr_specimen_total_tests      Total number of PCR specimens te~
#>  9 doctor-visits smoothed_cli                  Percentage of daily doctor visit~
#> 10 doctor-visits smoothed_adj_cli              Percentage of daily doctor visit~
#> # i 433 more rows
…
