Help for package fetch
…
# Example 1: Fetch Entire Dataset

# Get data from the catalog
dat1 <- fetch(ct$ADEX)

# View Data
dat1
# A tibble: 348 × 17                                                                                      
#   STUDYID USUBJID   SUBJID SITEID TRTP  TRTPN TRTA  TRTAN RANDFL SAFFL
#   <chr>   <chr>     <chr>  <chr>  <chr> <dbl> <chr> <dbl> <chr>  <chr>
#  1 ABC     ABC-01-0… 049    01     ARM D     4 ARM D     4 Y      Y    
#  2 ABC     ABC-01-0… 049    01     ARM D     4 ARM D     4 Y      Y    
#  3 ABC     ABC-01-0… 049    01     ARM D     4 ARM D     4 Y      Y    
#  4 ABC     ABC-01-0… 049    01     ARM D     4 ARM D     4 Y      Y    
#  5 ABC     ABC-01-0… 050    01     ARM B     2 ARM B     2 Y      Y    
#  6 ABC     ABC-01-0… 050    01     ARM B     2 ARM B     2 Y      Y    
#  7 ABC     ABC-01-0… 050    01     ARM B     2 ARM B     2 Y      Y    
#  8 ABC     ABC-01-0… 050    01     ARM B     2 ARM B     2 Y      Y    
#  9 ABC     ABC-01-0… 051    01     ARM A     1 ARM A     1 Y      Y    
# 10 ABC     ABC-01-0… 051    01     ARM A     1 ARM A     1 Y      Y    
#  338 more rows
#  7 more variables: MITTFL <chr>, PPROTFL <chr>, PARAM <chr>,
#  PARAMCD <chr>, PARAMN <dbl>, AVAL <dbl>, AVALCAT1 <chr>
#  Use `print(n = ...)` to see more rows
…
