Help for package lievens
…
One single tabular tidy data set in long format, encompassing three data sets
of five-point, five-fold dilution series: (i) without any inhibitor, (ii)
with isopropanol inhibition and (iii) with tannic acid inhibition. The target
amplicon consisted of a sequence within the soybean Lectin endogene. Please read
the Methods section of Lievens et al. (2012) for more experimental details.

Each data set consists of a five-point, five-fold dilution series spanning an
amplicon copy number range from 100,000 down to 160. Each
concentration is replicated 18 times. Each reaction has been amplified
through 60 cycles.

Dilution series

dplyr::filter(lievens, inhibitor == "none")
#> # A tibble: 5,400 x 13
#>    plate well  target dye   inhibitor inhibitor_conc sample sample_type
#>    <fct> <fct> <fct>  <fct> <fct>              <dbl> <fct>  <fct>      
#>  1 soy   <NA>  Le1    SYBR  none                   0 S1     std        
#>  2 soy   <NA>  Le1    SYBR  none                   0 S1     std        
#>  3 soy   <NA>  Le1    SYBR  none                   0 S1     std        
#>  4 soy   <NA>  Le1    SYBR  none                   0 S1     std        
#>  5 soy   <NA>  Le1    SYBR  none                   0 S1     std        
#>  6 soy   <NA>  Le1    SYBR  none                   0 S1     std        
#>  7 soy   <NA>  Le1    SYBR  none                   0 S1     std        
#>  8 soy   <NA>  Le1    SYBR  none                   0 S1     std        
#>  9 soy   <NA>  Le1    SYBR  none                   0 S1     std        
#> 10 soy   <NA>  Le1    SYBR  none                   0 S1     std        
#> # i 5,390 more rows
#> # i 5 more variables: replicate <fct>, copies <int>, dilution <int>,
#> #   cycle <int>, fluor <dbl>

Isopropanol inhibition

A series of reactions subjected to inhibition by isopropanol with
concentrations: 2.5, 0.5, 0.1, 0.02, and 0.004 % (v/v). Because samples have
been co-diluted, the initial copy numbers of the target amplicon also follow
the same five-fold progression in tandem: 100,000, 20,000,
4,000, 800 and 160 copies.

dplyr::filter(lievens, inhibitor == "isopropanol")
#> # A tibble: 5,400 x 13
#>    plate          well  target dye   inhibitor inhibitor_conc sample sample_type
#>    <fct>          <fct> <fct>  <fct> <fct>              <dbl> <fct>  <fct>      
#>  1 soy+isopropan~ <NA>  Le1    SYBR  isopropa~            2.5 S1     std        
#>  2 soy+isopropan~ <NA>  Le1    SYBR  isopropa~            2.5 S1     std        
#>  3 soy+isopropan~ <NA>  Le1    SYBR  isopropa~            2.5 S1     std        
#>  4 soy+isopropan~ <NA>  Le1    SYBR  isopropa~            2.5 S1     std        
#>  5 soy+isopropan~ <NA>  Le1    SYBR  isopropa~            2.5 S1     std        
#>  6 soy+isopropan~ <NA>  Le1    SYBR  isopropa~            2.5 S1     std        
#>  7 soy+isopropan~ <NA>  Le1    SYBR  isopropa~            2.5 S1     std        
#>  8 soy+isopropan~ <NA>  Le1    SYBR  isopropa~            2.5 S1     std        
#>  9 soy+isopropan~ <NA>  Le1    SYBR  isopropa~            2.5 S1     std        
#> 10 soy+isopropan~ <NA>  Le1    SYBR  isopropa~            2.5 S1     std        
#> # i 5,390 more rows
#> # i 5 more variables: replicate <fct>, copies <int>, dilution <int>,
#> #   cycle <int>, fluor <dbl>

Tannic acid inhibition

A series of reactions subjected to inhibition by tannic acid with
concentrations: 0.2, 0.04, 0.008, 0.0016 and 0.0032 ul/mL. Because samples
have been co-diluted, the initial copy numbers of the target amplicon also
follow the same five-fold progression in tandem: 100,000, 20,000, 4,000, 800
and 160.

dplyr::filter(lievens, inhibitor == "tannic acid")
#> # A tibble: 5,400 x 13
#>    plate          well  target dye   inhibitor inhibitor_conc sample sample_type
#>    <fct>          <fct> <fct>  <fct> <fct>              <dbl> <fct>  <fct>      
#>  1 soy+tannic ac~ <NA>  Le1    SYBR  tannic a~            0.2 S1     std        
#>  2 soy+tannic ac~ <NA>  Le1    SYBR  tannic a~            0.2 S1     std        
#>  3 soy+tannic ac~ <NA>  Le1    SYBR  tannic a~            0.2 S1     std        
#>  4 soy+tannic ac~ <NA>  Le1    SYBR  tannic a~            0.2 S1     std        
#>  5 soy+tannic ac~ <NA>  Le1    SYBR  tannic a~            0.2 S1     std        
#>  6 soy+tannic ac~ <NA>  Le1    SYBR  tannic a~            0.2 S1     std        
#>  7 soy+tannic ac~ <NA>  Le1    SYBR  tannic a~            0.2 S1     std        
#>  8 soy+tannic ac~ <NA>  Le1    SYBR  tannic a~            0.2 S1     std        
#>  9 soy+tannic ac~ <NA>  Le1    SYBR  tannic a~            0.2 S1     std        
#> 10 soy+tannic ac~ <NA>  Le1    SYBR  tannic a~            0.2 S1     std        
#> # i 5,390 more rows
#> # i 5 more variables: replicate <fct>, copies <int>, dilution <int>,
#> #   cycle <int>, fluor <dbl>
…
