Help for package manynet
…
Usage

data(fict_friends)

Format

#> # Friends network
#> # A labelled, weighted, undirected network of 650 characters and 2976 scene
#> co-appearance ties
#> # A tibble: 650 x 1
#>   name        
#>   <chr>       
#> 1 Actor       
#> 2 Alan        
#> 3 Andrea      
#> 4 Angela      
#> 5 Aunt Iris   
#> 6 Aunt Lillian
#> # i 644 more rows
#> # A tibble: 2,976 x 3
#>    from    to weight
#>   <int> <int>  <dbl>
#> 1     8     9      3
#> 2     4    10      1
#> 3     8    12      1
#> 4     9    12      1
#> 5     2    14      1
#> 6     3    14      1
#> # i 2,970 more rows
…
 'season': season that the character joined the show

 'sign': character's astrological starsign, if known

The data is current up to (I think?) season 10?

Usage

data(fict_greys)

Format

#> # Grey's Anatomy
#> # A labelled, undirected network of 53 characters and 56 hook-up ties
#> # A tibble: 53 x 7
#>   name               sex   race  birthyear position  season sign  
#>   <chr>              <chr> <chr>     <dbl> <chr>      <dbl> <chr> 
#> 1 Addison Montgomery F     White      1967 Attending      1 Libra 
#> 2 Adele Webber       F     Black      1949 Non-Staff      2 Leo   
#> 3 Teddy Altman       F     White      1969 Attending      6 Pisces
#> 4 Amelia Shepherd    F     White      1981 Attending      7 Libra 
#> 5 Arizona Robbins    F     White      1976 Attending      5 Leo   
#> 6 Rebecca Pope       F     White      1975 Non-Staff      3 Gemini
#> # i 47 more rows
#> # A tibble: 56 x 2
#>    from    to
#>   <int> <int>
#> 1     5    47
#> 2    21    47
#> 3     5    46
#> 4     5    41
#> 5    18    41
#> 6    21    41
#> # i 50 more rows
…
A network of 36 Lord of the Rings book characters and 66 interactional relationships.
The ties are unweighted and concern only interaction.
Interaction can be cooperative or conflictual.

Usage

data(fict_lotr)

Format

#> # Lord of the Rings
#> # A labelled, complex, undirected network of 36 characters and 66 interaction
#> ties
#> # A tibble: 36 x 2
#>   name     Race  
#>   <chr>    <chr> 
#> 1 Aragorn  Human 
#> 2 Beregond Human 
#> 3 Bilbo    Hobbit
#> 4 Celeborn Elf   
#> 5 Denethor Human 
#> 6 Elladan  Elf   
#> # i 30 more rows
#> # A tibble: 66 x 2
#>    from    to
#>   <int> <int>
#> 1     1     7
#> 2     1     8
#> 3     5     9
#> 4     1    10
#> 5     3    10
#> 6     9    10
#> # i 60 more rows
…
Usage

data(fict_potter)

Format

#> # Harry Potter
#> # A longitudinal, labelled, complex, directed network of 64 students and 544
#> support arcs
#> # A tibble: 64 x 4
#>   name              schoolyear gender house     
#>   <chr>                  <int> <chr>  <chr>     
#> 1 Adrian Pucey            1989 male   Slytherin 
#> 2 Alicia Spinnet          1989 female Gryffindor
#> 3 Angelina Johnson        1989 female Gryffindor
#> 4 Anthony Goldstein       1991 male   Ravenclaw 
#> 5 Blaise Zabini           1991 male   Slytherin 
#> 6 C. Warrington           1989 male   Slytherin 
#> # i 58 more rows
#> # A tibble: 544 x 3
#>    from    to  wave
#>   <int> <int> <dbl>
#> 1     2     2     2
#> 2     2     2     3
#> 3     2     2     5
#> 4     2     3     2
#> 5     2     3     3
#> 6     2     3     5
#> # i 538 more rows
…
Usage

data(fict_thrones)

Format

#> # Game of Thrones Kinship
#> # A labelled, multiplex, directed network of 208 characters and 404 kinship
#> arcs
#> # A tibble: 208 x 10
#>   name          culture house  popularity Gender title birth death noble married
#>   <chr>         <fct>   <chr>       <dbl> <chr>  <chr> <int> <int> <lgl> <lgl>  
#> 1 Alys Arryn    <NA>    House~     0.0803 female ""       NA    NA FALSE TRUE   
#> 2 Elys Waynwood <NA>    House~     0.0702 female "Ser"    NA    NA TRUE  TRUE   
#> 3 Jasper Arryn  <NA>    House~     0.0435 male   "Eyr~    NA    NA TRUE  FALSE  
#> 4 Jeyne Royce   <NA>    House~     0      female  <NA>    NA    NA NA    NA     
#> 5 Jon Arryn     Valemen House~     0.836  male   "Eyr~   217   298 TRUE  TRUE   
#> 6 Lysa Arryn    <NA>    House~     0      female "Lad~   266   300 TRUE  TRUE   
#> # i 202 more rows
#> # A tibble: 404 x 3
#>    from    to type  
#>   <int> <int> <chr> 
#> 1     1     2 spouse
#> 2     2     1 spouse
#> 3     3     1 parent
#> 4     3     5 parent
#> 5     4     5 spouse
#> 6     5     4 spouse
#> # i 398 more rows
…
Political leaning is indicated as "Liberal" (or left leaning) or
"Conservative" (or right leaning), sourced from blog directories.
Some blogs were labelled manually,
based on incoming and outgoing links and posts.

Usage

data(irps_blogs)

Format

#> # A labelled, complex, directed network of 1490 blogs and 19090 link arcs
#> # A tibble: 1,490 x 3
#>   name                       Leaning Source               
#>   <chr>                      <chr>   <chr>                
#> 1 100monkeystyping.com       Liberal Blogarama            
#> 2 12thharmonic.com/wordpress Liberal BlogCatalog          
#> 3 40ozblog.blogspot.com      Liberal Blogarama,BlogCatalog
#> 4 4lina.tblog.com            Liberal Blogarama            
#> 5 750volts.blogspot.com      Liberal Blogarama            
#> 6 95theses.blogspot.com      Liberal Blogarama            
#> # i 1,484 more rows
#> # A tibble: 19,090 x 2
#>    from    to
#>   <int> <int>
#> 1   267  1394
#> 2   267   483
#> 3   267  1051
#> 4   904  1479
#> 5   904   919
#> 6   904  1045
#> # i 19,084 more rows
…
Information about the book's leaning "Liberal", "Neutral", or "Conservative"
were added separately by Mark Newman based on the abstracts, descriptions,
and reviews posted on Amazon.

These data should be cited as V. Krebs, unpublished, http://www.orgnet.com/.

Usage

data(irps_books)

Format

#> # A labelled, undirected network of 105 nodes and 441 ties
#> # A tibble: 105 x 2
#>   name                       Leaning     
#>   <chr>                      <chr>       
#> 1 1000 Years for Revenge     Neutral     
#> 2 Bush vs. the Beltway       Conservative
#> 3 Charlie Wilson's War       Conservative
#> 4 Losing Bin Laden           Conservative
#> 5 Sleeping With the Devil    Neutral     
#> 6 The Man Who Warned America Conservative
#> # i 99 more rows
#> # A tibble: 441 x 2
#>    from    to
#>   <int> <int>
#> 1     1     2
#> 2     1     3
#> 3     1     4
#> 4     2     4
#> 5     1     5
#> 6     3     5
#> # i 435 more rows
…
Usage

data(irps_usgeo)

Format

#> # US State Contiguity
#> # A labelled, undirected network of 50 states and 107 contiguity ties
#> # A tibble: 50 x 3
#>   name  capitol     population
#>   <chr> <chr>            <int>
#> 1 AK    Juneau              NA
#> 2 AL    Montgomery     4780127
#> 3 AR    Little Rock    2915958
#> 4 AZ    Phoenix        6392307
#> 5 CA    Sacramento    37252895
#> 6 CO    Denver         5029324
#> # i 44 more rows
#> # A tibble: 107 x 2
#>    from    to
#>   <int> <int>
#> 1     2     9
#> 2     2    10
#> 3     2    25
#> 4     2    42
#> 5     3    18
#> 6     3    24
#> # i 101 more rows
…
Format

#> # World War I Protagonists
#> # A dynamic, labelled, signed, undirected network of 6 European major powers
#> and 20 relationship ties
#> # A tibble: 6 x 1
#>   name 
#>   <chr>
#> 1 GBR  
#> 2 FRA  
#> 3 RUS  
#> 4 AUH  
#> 5 DEU  
#> 6 ITA  
#> # A tibble: 20 x 5
#>    from    to  sign begin   end
#>   <int> <int> <dbl> <dbl> <dbl>
#> 1     1     2    -1  1872  1904
#> 2     1     3    -1  1872  1907
#> 3     1     4    -1  1872  1918
#> 4     2     3    -1  1872  1890
#> 5     2     4    -1  1872  1918
#> 6     2     5    -1  1872  1918
#> # i 14 more rows
…
One-mode subset of Coleman's adolescent society network (Coleman 1961),
as used in Feld's (1991) "Why your friends have more friends than you do".
Coleman collected data on friendships among students in 12 U.S. high schools.
Feld explored a subset of 8 girls from one of these schools, "Marketville",
and gave them fictitious names, which are retained here.

Usage

data(ison_adolescents)

Format

#> # The Adolescent Society
#> # A labelled, undirected network of 8 adolescents and 10 friendships ties
#> # A tibble: 8 x 1
#>   name 
#>   <chr>
#> 1 Betty
#> 2 Sue  
#> 3 Alice
#> 4 Jane 
#> 5 Dale 
#> 6 Pam  
#> # i 2 more rows
#> # A tibble: 10 x 2
#>    from    to
#>   <int> <int>
#> 1     1     2
#> 2     2     3
#> 3     3     4
#> 4     2     5
#> 5     3     5
#> 6     4     5
#> # i 4 more rows
…
Usage

data(ison_algebra)

Format

#> # A multiplex, weighted, directed network of 16 nodes and 279 social, tasks,
#> and friends arcs
#> # A tibble: 279 x 4
#>    from    to type   weight
#>   <int> <int> <chr>   <dbl>
#> 1     1     5 social   1.2 
#> 2     1     5 tasks    0.3 
#> 3     1     8 social   0.15
#> 4     1     9 social   2.85
#> 5     1     9 tasks    0.3 
#> 6     1    10 social   6.45
#> # i 273 more rows
…
Description

This network should solely be used
for demonstration purposes as it does not describe a real network.
To convert into the two-mode version,
assign ison_brandes %>% rename(type = twomode_type).

Usage

data(ison_brandes)

Format

#> # A undirected network of 11 nodes and 12 ties
#> # A tibble: 11 x 1
#>   twomode_type
#>   <lgl>       
#> 1 FALSE       
#> 2 FALSE       
#> 3 TRUE        
#> 4 FALSE       
#> 5 TRUE        
#> 6 TRUE        
#> # i 5 more rows
#> # A tibble: 12 x 2
#>    from    to
#>   <int> <int>
#> 1     1     3
#> 2     2     3
#> 3     3     4
#> 4     4     5
#> 5     4     6
#> 6     5     7
#> # i 6 more rows
…
Description

These data contain the frequent associations between the 62 dolphins of a
pod of dolphins living off Doubtful Sound, New Zealand.
Additional information can be found in the literature cited below.

Usage

data(ison_dolphins)

Format

#> # A labelled, undirected network of 62 nodes and 159 ties
#> # A tibble: 62 x 1
#>   name      
#>   <chr>     
#> 1 Beak      
#> 2 Beescratch
#> 3 Bumper    
#> 4 CCL       
#> 5 Cross     
#> 6 DN16      
#> # i 56 more rows
#> # A tibble: 159 x 2
#>    from    to
#>   <int> <int>
#> 1     4     9
#> 2     6    10
#> 3     7    10
#> 4     1    11
#> 5     3    11
#> 6     6    14
#> # i 153 more rows
…
 level: the manager's level in the corporate hierarchy,
where 3 = CEO, 2 = Vice President, and 1 = manager

 dept: one of four departments, B, C, D, E,
with the CEO alone in A

Usage

data(ison_hightech)

Format

#> # A multiplex, directed network of 21 nodes and 312 friends, advice, and
#> reports arcs
#> # A tibble: 21 x 4
#>     age tenure level dept 
#>   <dbl>  <dbl> <dbl> <chr>
#> 1    33      9     1 E    
#> 2    42     20     2 E    
#> 3    40     13     1 C    
#> 4    33      8     1 E    
#> 5    32      3     1 C    
#> 6    59     28     1 B    
#> # i 15 more rows
#> # A tibble: 312 x 3
#>    from    to type   
#>   <int> <int> <chr>  
#> 1     1     2 friends
#> 2     1     2 advice 
#> 3     1     2 reports
#> 4     1     4 friends
#> 5     1     4 advice 
#> 6     1     8 friends
#> # i 306 more rows
…
Usage

data(ison_karateka)

Format

#> # A labelled, weighted, undirected network of 34 nodes and 78 ties
#> # A tibble: 34 x 2
#>   name  allegiance
#>   <chr>      <dbl>
#> 1 Mr Hi          1
#> 2 2              1
#> 3 3              1
#> 4 4              1
#> 5 5              1
#> 6 6              1
#> # i 28 more rows
#> # A tibble: 78 x 3
#>    from    to weight
#>   <int> <int>  <dbl>
#> 1     1     2      4
#> 2     1     3      5
#> 3     2     3      6
#> 4     1     4      3
#> 5     2     4      3
#> 6     3     4      3
#> # i 72 more rows
…
Usage

data(ison_koenigsberg)

Format

#> # A labelled, undirected network of 4 nodes and 7 ties
#> # A tibble: 4 x 3
#>   name       lat   lon
#>   <chr>    <dbl> <dbl>
#> 1 Altstadt  54.7  20.5
#> 2 Kneiphof  54.7  20.5
#> 3 Lomse     54.7  20.5
#> 4 Vorstadt  54.7  20.5
#> # A tibble: 7 x 3
#>    from    to name           
#>   <int> <int> <chr>          
#> 1     1     2 Kraemer Bruecke
#> 2     1     2 Schmiedebruecke
#> 3     1     3 Holzbruecke    
#> 4     2     3 Honigbruecke   
#> 5     2     4 Gruene Bruecke 
#> 6     2     4 Koettelbruecke 
#> # i 1 more row
…
These networks are for demonstration purposes and do not describe any real world network.
All examples contain named nodes.
The networks are gathered together as a list and can be retrieved simply by plucking
the desired network.

Usage

data(ison_laterals)

Format

#> $ison_bb
#> # A labelled, two-mode network of 10 nodes and 12 ties
#> # A tibble: 10 x 2
#>   name  type 
#>   <chr> <lgl>
#> 1 A     FALSE
#> 2 B     FALSE
#> 3 C     FALSE
#> 4 D     FALSE
#> 5 U     TRUE 
#> 6 V     TRUE 
#> # i 4 more rows
#> # A tibble: 12 x 2
#>    from    to
#>   <int> <int>
#> 1     1     5
#> 2     1     6
#> 3     2     5
#> 4     2     7
#> 5     2     8
#> 6     2     9
#> # i 6 more rows
#> 
#> $ison_bm
#> # A labelled, two-mode network of 8 nodes and 9 ties
#> # A tibble: 8 x 2
#>   name  type 
#>   <chr> <lgl>
#> 1 A     FALSE
#> 2 B     FALSE
#> 3 C     FALSE
#> 4 D     FALSE
#> 5 U     TRUE 
#> 6 V     TRUE 
#> # i 2 more rows
#> # A tibble: 9 x 2
#>    from    to
#>   <int> <int>
#> 1     1     5
#> 2     1     6
#> 3     2     5
#> 4     2     7
#> 5     2     8
#> 6     3     6
#> # i 3 more rows
#> 
#> $ison_mb
#> # A labelled, two-mode network of 8 nodes and 9 ties
#> # A tibble: 8 x 2
#>   name  type 
#>   <chr> <lgl>
#> 1 A     FALSE
#> 2 B     FALSE
#> 3 C     FALSE
#> 4 D     FALSE
#> 5 M     TRUE 
#> 6 X     TRUE 
#> # i 2 more rows
#> # A tibble: 9 x 2
#>    from    to
#>   <int> <int>
#> 1     1     5
#> 2     2     5
#> 3     2     6
#> 4     2     7
#> 5     3     5
#> 6     3     6
#> # i 3 more rows
…
One-mode network dataset collected by Lazega (2001)
on the relations between partners in a corporate law firm called SG&R in New England 1988-1991.
This particular subset includes the 36 partners among the 71 attorneys of this firm.
Nodal attributes include seniority, formal status, office in which they work, gender, lawschool they attended,
their age, and how many years they had been at the firm.

Usage

data(ison_lawfirm)

Format

#> # A multiplex, directed network of 71 nodes and 2571 friends, advice, and
#> cowork arcs
#> # A tibble: 71 x 7
#>   status  gender office   seniority   age practice   school      
#>   <chr>   <chr>  <chr>        <dbl> <dbl> <chr>      <chr>       
#> 1 partner man    Boston          31    64 litigation Harvard/Yale
#> 2 partner man    Boston          32    62 corporate  Harvard/Yale
#> 3 partner man    Hartford        13    67 litigation Harvard/Yale
#> 4 partner man    Boston          31    59 corporate  Other       
#> 5 partner man    Hartford        31    59 litigation UConn       
#> 6 partner man    Hartford        29    55 litigation Harvard/Yale
#> # i 65 more rows
#> # A tibble: 2,571 x 3
#>    from    to type   
#>   <int> <int> <chr>  
#> 1     1     2 friends
#> 2     1     2 advice 
#> 3     1     4 friends
#> 4     1     8 friends
#> 5     1    17 friends
#> 6     1    17 advice 
#> # i 2,565 more rows
…
The second network, ison_marvel_relationships, is a one-mode signed network
of friendships and enmities between the 53 Marvel comic book characters.
Friendships are indicated by a positive sign in the tie sign attribute,
whereas enmities are indicated by a negative sign in this edge attribute.

Usage

data(ison_marvel_teams)

data(ison_marvel_relationships)

Format

#> # A labelled, two-mode network of 194 nodes and 683 ties
#> # A tibble: 194 x 2
#>   type  name         
#>   <lgl> <chr>        
#> 1 FALSE Abomination  
#> 2 FALSE Ant-Man      
#> 3 FALSE Apocalypse   
#> 4 FALSE Beast        
#> 5 FALSE Black Panther
#> 6 FALSE Black Widow  
#> # i 188 more rows
#> # A tibble: 683 x 2
#>    from    to
#>   <int> <int>
#> 1     1   120
#> 2     1   152
#> 3     1   160
#> 4     1   162
#> 5     1   179
#> 6     2    56
#> # i 677 more rows

#> # A labelled, complex, signed, undirected network of 53 nodes and 558 ties
#> # A tibble: 53 x 10
#>   name     Gender Appearances Attractive  Rich Intellect Omnilingual PowerOrigin
#>   <chr>    <chr>        <int>      <int> <int>     <int>       <int> <chr>      
#> 1 Abomina~ Male           427          0     0         1           1 Radiation  
#> 2 Ant-Man  Male           589          1     0         1           0 Human      
#> 3 Apocaly~ Male          1207          0     0         1           1 Mutant     
#> 4 Beast    Male          7609          1     0         1           0 Mutant     
#> 5 Black P~ Male          2189          1     1         1           0 Human      
#> 6 Black W~ Female        2907          1     0         1           0 Human      
#> # i 47 more rows
#> # i 2 more variables: UnarmedCombat <int>, ArmedCombat <int>
#> # A tibble: 558 x 3
#>    from    to  sign
#>   <int> <int> <dbl>
#> 1     1     4    -1
#> 2     1    11    -1
#> 3     1    12    -1
#> 4     1    23    -1
#> 5     1    24    -1
#> 6     1    25    -1
#> # i 552 more rows
…
Usage

data(ison_monks)

Format

#> # A longitudinal, labelled, multiplex, signed, weighted, directed network of 18
#> nodes and 463 like, esteem, influence, and praise arcs
#> # A tibble: 18 x 3
#>   name        groups        left
#>   <chr>       <chr>        <dbl>
#> 1 Romuald     Interstitial     3
#> 2 Bonaventure Loyal            4
#> 3 Ambrose     Loyal            4
#> 4 Berthold    Loyal            4
#> 5 Peter       Loyal            3
#> 6 Louis       Loyal            4
#> # i 12 more rows
#> # A tibble: 463 x 6
#>    from    to  sign type  weight  wave
#>   <int> <int> <dbl> <chr>  <dbl> <dbl>
#> 1     1     2     1 like       1     2
#> 2     1     2     1 like       1     3
#> 3     1     3     1 like       1     3
#> 4     1     5     1 like       3     1
#> 5     1     5     1 like       3     2
#> 6     1     5     1 like       3     3
#> # i 457 more rows
…
A directed, simple, named, weighted graph with 32 nodes and 440
edges. Nodes are academics and edges illustrate the communication patterns
on an Electronic Information Exchange System among them. Node attributes
include the number of citations (Citations) and the discipline of the
researchers (Discipline). Edge weights illustrate the number of emails
sent from one academic to another over the studied time period.

Usage

data(ison_networkers)

Format

#> # A labelled, weighted, directed network of 32 nodes and 440 arcs
#> # A tibble: 32 x 3
#>   name               Discipline   Citations
#>   <chr>              <chr>            <dbl>
#> 1 Lin Freeman        Sociology           19
#> 2 Doug White         Anthropology         3
#> 3 Ev Rogers          Other              170
#> 4 Richard Alba       Sociology           23
#> 5 Phipps Arabie      Other               16
#> 6 Carol Barner-Barry Other                6
#> # i 26 more rows
#> # A tibble: 440 x 3
#>    from    to weight
#>   <int> <int>  <dbl>
#> 1     1     2    488
#> 2     1     3     28
#> 3     1     4     65
#> 4     1     5     20
#> 5     1     6     65
#> 6     1     7     45
#> # i 434 more rows
…
