Help for package migraph
…
Usage

data(mpn_bristol)

Format

#> # Bristol protest event network
#> # A labelled, two-mode network of 150 individuals and 1496 affiliation and
#> participation ties
#> # A tibble: 264 x 3
#>   name  type    lvl
#>   <chr> <lgl> <dbl>
#> 1 101   FALSE     1
#> 2 102   FALSE     1
#> 3 103   FALSE     1
#> 4 104   FALSE     1
#> 5 105   FALSE     1
#> 6 106   FALSE     1
#> # i 258 more rows
#> # A tibble: 1,496 x 2
#>    from    to
#>   <int> <int>
#> 1    36   151
#> 2    40   151
#> 3    73   151
#> 4    94   151
#> 5   138   151
#> 6   145   151
#> # i 1,490 more rows
…
Description

One-mode interstate trade relations and two-mode state membership in IGOs (COW)

Usage

data(mpn_cow_trade)

data(mpn_cow_igo)

Format

#> # A labelled, weighted, directed network of 116 nodes and 11489 arcs
#> # A tibble: 116 x 1
#>   name                    
#>   <chr>                   
#> 1 United States of America
#> 2 Canada                  
#> 3 Cuba                    
#> 4 Dominican Republic      
#> 5 Jamaica                 
#> 6 Trinidad and Tobago     
#> # i 110 more rows
#> # A tibble: 11,489 x 3
#>    from    to  weight
#>   <int> <int>   <dbl>
#> 1     1     2 180387 
#> 2     1     3    587.
#> 3     1     4   5511.
#> 4     1     5   1896.
#> 5     1     6   2188.
#> 6     1     7 123677 
#> # i 11,483 more rows

#> # A labelled, weighted, two-mode network of 152 nodes and 839 ties
#> # A tibble: 152 x 3
#>   name        type  polity2
#>   <chr>       <lgl>   <dbl>
#> 1 Afghanistan FALSE      -7
#> 2 Albania     FALSE       5
#> 3 Algeria     FALSE      -3
#> 4 Angola      FALSE      -6
#> 5 Argentina   FALSE       8
#> 6 Australia   FALSE      10
#> # i 146 more rows
#> # A tibble: 839 x 3
#>    from    to weight
#>   <int> <int>  <dbl>
#> 1     1   113      1
#> 2     1   114      1
#> 3     1   115      0
#> 4     1   116      0
#> 5     1   117      1
#> 6     1   118      0
#> # i 833 more rows
…
Usage

data(mpn_elite_mex)

Format

#> # Mexican power elite network
#> # A labelled, undirected network of 35 elites and 117 common belonging or
#> interest ties
#> # A tibble: 35 x 8
#>   name     full_name        entry_year military in_mpn PlaceOfBirth state region
#>   <chr>    <chr>                 <dbl>    <dbl>  <dbl> <chr>        <chr>  <dbl>
#> 1 Trevino  Trevino, Jacint~       1910        1      0 Guerrero     Coah~      1
#> 2 Madero   Madero, Francis~       1911        0      0 Parras de l~ Coah~      1
#> 3 Carranza Carranza, Venus~       1913        1      0 Cuatro Cien~ Coah~      1
#> 4 Aguilar  Aguilar, Candido       1918        1      0 Cordoba      Vera~      3
#> 5 Obregon  Obregon, Alvaro        1920        1      0 Siquisiva, ~ Sono~      1
#> 6 Calles   Calles, Plutarc~       1924        1      0 Guaymas      Sono~      1
#> # i 29 more rows
#> # A tibble: 117 x 2
#>    from    to
#>   <int> <int>
#> 1     2     3
#> 2     2     5
#> 3     2     6
#> 4     2     4
#> 5     1     2
#> 6     2     8
#> # i 111 more rows
…
Usage

data(mpn_elite_usa_advice)

data(mpn_elite_usa_money)

Format

#> # A labelled, two-mode network of 34 nodes and 46 ties
#> # A tibble: 34 x 2
#>   type  name    
#>   <lgl> <chr>   
#> 1 FALSE Albright
#> 2 FALSE Argyros 
#> 3 FALSE Armitage
#> 4 FALSE Curry   
#> 5 FALSE Fukuyama
#> 6 FALSE Gray    
#> # i 28 more rows
#> # A tibble: 46 x 2
#>    from    to
#>   <int> <int>
#> 1     1    17
#> 2     1    19
#> 3     1    21
#> 4     2    22
#> 5     2    23
#> 6     2    27
#> # i 40 more rows

#> # A labelled, two-mode network of 38 nodes and 103 ties
#> # A tibble: 38 x 2
#>   type  name    
#>   <lgl> <chr>   
#> 1 FALSE Adkerson
#> 2 FALSE Akins   
#> 3 FALSE Banga   
#> 4 FALSE Boyce   
#> 5 FALSE Britt   
#> 6 FALSE Cannon  
#> # i 32 more rows
#> # A tibble: 103 x 2
#>    from    to
#>   <int> <int>
#> 1     1    27
#> 2     1    28
#> 3     1    34
#> 4     1    36
#> 5     2    28
#> 6     2    32
#> # i 97 more rows
…
Usage

data(mpn_ryanair)

Format

#> # EU policy influence network
#> # A labelled, weighted, directed network of 20 policy actors and 177
#> interaction arcs
#> # A tibble: 20 x 1
#>   name          
#>   <chr>         
#> 1 1 AER         
#> 2 2 AER         
#> 3 5 AER/COR     
#> 4 7 RYANAIR     
#> 5 8 DG TRANSPORT
#> 6 9 COR         
#> # i 14 more rows
#> # A tibble: 177 x 3
#>    from    to weight
#>   <int> <int>  <dbl>
#> 1     1     2      1
#> 2     1     3      1
#> 3     1     4      1
#> 4     1     5      1
#> 5     1     6      1
#> 6     1     7      1
#> # i 171 more rows
…
Usage

data(mpn_senate_dem)

data(mpn_senate_rep)

data(mpn_senate_over)

Format

#> # A labelled, weighted, two-mode network of 114 nodes and 2791 ties
#> # A tibble: 114 x 2
#>   type  name      
#>   <lgl> <chr>     
#> 1 FALSE Baucus    
#> 2 FALSE Begich    
#> 3 FALSE Bennet    
#> 4 FALSE Blumenthal
#> 5 FALSE Boxer     
#> 6 FALSE BrownSh   
#> # i 108 more rows
#> # A tibble: 2,791 x 3
#>    from    to weight
#>   <int> <int>  <dbl>
#> 1     1    52      1
#> 2     1    53      1
#> 3     1    54      1
#> 4     1    55      1
#> 5     1    56      1
#> 6     1    57      1
#> # i 2,785 more rows

#> # A labelled, weighted, two-mode network of 134 nodes and 3675 ties
#> # A tibble: 134 x 2
#>   type  name     
#>   <lgl> <chr>    
#> 1 FALSE Alexander
#> 2 FALSE Ayotte   
#> 3 FALSE Barrasso 
#> 4 FALSE Baucus   
#> 5 FALSE Blunt    
#> 6 FALSE Boozman  
#> # i 128 more rows
#> # A tibble: 3,675 x 3
#>    from    to weight
#>   <int> <int>  <dbl>
#> 1     1    64      1
#> 2     1    66      1
#> 3     1    67      1
#> 4     1    70      1
#> 5     1    71      1
#> 6     1    72      1
#> # i 3,669 more rows

#> # A labelled, weighted, two-mode network of 52 nodes and 614 ties
#> # A tibble: 52 x 2
#>   type  name     
#>   <lgl> <chr>    
#> 1 FALSE Baucus   
#> 2 FALSE Cardin   
#> 3 FALSE Carper   
#> 4 FALSE Casey    
#> 5 FALSE Collins  
#> 6 FALSE Feinstein
#> # i 46 more rows
#> # A tibble: 614 x 3
#>    from    to weight
#>   <int> <int>  <dbl>
#> 1     1    21      1
#> 2     1    22      1
#> 3     1    23      1
#> 4     1    24      1
#> 5     1    25      1
#> 6     1    26      1
#> # i 608 more rows
…
