Help for package modeldatatoo
…
Arguments passed to pins::pin_read().

Details

This data set contains quite a bit of missing data and malformed fields.

Value

tibble

tibble print

data_animals()
#> # A tibble: 610 x 48
#>    text    colour lifespan weight kingdom class phylum diet  conservation_status
#>    <chr>   <chr>  <chr>    <chr>  <chr>   <chr> <chr>  <chr> <chr>              
#>  1 "Aardv~ Brown~ 23 years 60kg ~ Animal~ Mamm~ Chord~ Omni~ Least Concern      
#>  2 "Abyss~ Fawn,~ <NA>     <NA>   <NA>    <NA>  <NA>   <NA>  <NA>               
#>  3 "Adeli~ Black~ 10 - 20~ 3kg -~ Animal~ Aves  Chord~ Carn~ Least Concern      
#>  4 "Affen~ Black~ <NA>     <NA>   <NA>    <NA>  <NA>   <NA>  <NA>               
#>  5 "Afgha~ Black~ <NA>     <NA>   <NA>    <NA>  <NA>   <NA>  <NA>               
#>  6 "Afric~ Grey,~ 60 - 70~ 3,600~ Animal~ Mamm~ Chord~ Herb~ Threatened         
#>  7 "Afric~ Black~ 15 - 20~ 1.4kg~ Animal~ Mamm~ Chord~ Omni~ Least Concern      
#>  8 "Afric~ Brown~ 8 - 15 ~ 25g -~ Animal~ Amph~ Chord~ Carn~ Least Concern      
#>  9 "Afric~ Grey,~ 60 - 70~ 900kg~ Animal~ Mamm~ Chord~ Herb~ Endangered         
#> 10 "Afric~ Black~ 15 - 20~ 1.4kg~ Animal~ Mamm~ Chord~ Omni~ Least Concern      
#> # i 600 more rows
#> # i 39 more variables: order <chr>, scientific_name <chr>, skin_type <chr>,
#> #   habitat <chr>, predators <chr>, family <chr>, lifestyle <chr>,
#> #   average_litter_size <chr>, genus <chr>, top_speed <chr>,
#> #   favourite_food <chr>, main_prey <chr>, type <chr>, common_name <chr>,
#> #   group <chr>, size <chr>, distinctive_features <chr>, size_l <chr>,
#> #   origin <chr>, special_features <chr>, location <chr>, ...
…
community_boardCommunity board. 3-digit identifier: Borough code = first position, last 2 = community board

complaint_categoryComplaint category

complaint_priorityComplaint priority

Value

tibble

tibble print

data_building_complaints()
#> # A tibble: 4,234 x 11
#>    days_to_disposition status year_entered latitude longitude borough 
#>                  <dbl> <chr>  <fct>           <dbl>     <dbl> <fct>   
#>  1                  72 ACTIVE 2023             40.7     -74.0 Brooklyn
#>  2                   1 ACTIVE 2023             40.6     -74.0 Brooklyn
#>  3                  41 ACTIVE 2023             40.7     -73.9 Queens  
#>  4                  45 ACTIVE 2023             40.7     -73.8 Queens  
#>  5                  16 ACTIVE 2023             40.6     -74.0 Brooklyn
#>  6                  62 ACTIVE 2023             40.7     -73.8 Queens  
#>  7                  56 ACTIVE 2023             40.7     -74.0 Brooklyn
#>  8                  11 ACTIVE 2023             40.7     -74.0 Brooklyn
#>  9                  35 ACTIVE 2023             40.7     -73.8 Queens  
#> 10                  38 ACTIVE 2023             40.7     -73.9 Queens  
#> # i 4,224 more rows
#> # i 5 more variables: special_district <fct>, unit <fct>,
#> #   community_board <fct>, complaint_category <fct>, complaint_priority <fct>
…
document_idA unique identifier for the supplied essay. Some
essays were supplied to multiple detectors. Note that some essays
are AI-revised derivatives of others.

promptFor essays that were written by AI, a descriptor for the
form of "prompt engineering" passed to the model.

Value

tibble

tibble print

data_detectors()
#> # A tibble: 6,185 x 9
#>    kind  .pred_AI .pred_class detector     native name  model document_id prompt
#>    <fct>    <dbl> <fct>       <chr>        <chr>  <chr> <chr>       <dbl> <chr> 
#>  1 Human 1.00     AI          Sapling      No     Real~ Human         497 <NA>  
#>  2 Human 0.828    AI          Crossplag    No     Real~ Human         278 <NA>  
#>  3 Human 0.000214 Human       Crossplag    Yes    Real~ Human         294 <NA>  
#>  4 AI    0        Human       ZeroGPT      <NA>   Fake~ GPT3          671 Plain 
#>  5 AI    0.00178  Human       Originality~ <NA>   Fake~ GPT4          717 Eleva~
#>  6 Human 0.000178 Human       HFOpenAI     Yes    Real~ Human         855 <NA>  
#>  7 AI    0.992    AI          HFOpenAI     <NA>   Fake~ GPT3          533 Plain 
#>  8 AI    0.0226   Human       Crossplag    <NA>   Fake~ GPT4          484 Eleva~
#>  9 Human 0        Human       ZeroGPT      Yes    Real~ Human         781 <NA>  
#> 10 Human 1.00     AI          Sapling      No     Real~ Human         460 <NA>  
#> # i 6,175 more rows
…
longitudeLongitude of elevator

elevators_per_buildingnumber of elevators in building

...

Value

tibble

tibble print

data_elevators()
#> # A tibble: 35,042 x 25
#>    device_number bin     tax_block tax_lot house_number street_name     zip_code
#>    <chr>         <chr>   <chr>     <chr>   <chr>        <chr>           <chr>   
#>  1 1D10028       1024795 1021      26      1614         BROADWAY        10019   
#>  2 1D10094       1041822 1392      25      53           E 77TH ST       10021   
#>  3 1D10097       1038223 1323      1       201          E 49 ST         10017   
#>  4 1D10146       1080443 1274      6       40           CENTRAL PARK S~ <NA>    
#>  5 1D10200       1085777 1074      24      651          TENTH AVENUE    <NA>    
#>  6 1D10301       1002075 181       16      179          FRANKLIN STREET 10013   
#>  7 1D10302       1010518 606       4       121          WEST 10 STREET  10011   
#>  8 1D10303       1085955 1329      1       915          3 AVENUE        10022   
#>  9 1D10304       1044058 1430      5       220          E. 76 ST        10021   
#> 10 1D10305       1087468 1951      4       133          MORNINGSIDE AV~ <NA>    
#> # i 35,032 more rows
#> # i 18 more variables: borough <fct>, device_type <chr>,
#> #   lastper_insp_date <date>, approval_date <date>, manufacturer <chr>,
#> #   travel_distance <chr>, speed_fpm <dbl>, capacity_lbs <dbl>,
#> #   car_buffer_type <chr>, governor_type <chr>, machine_type <chr>,
#> #   safety_type <chr>, mode_operation <chr>, floor_from <chr>, floor_to <chr>,
#> #   latitude <dbl>, longitude <dbl>, elevators_per_building <int>
…
 15 small-scale (5 liters) bioreactors were seeded with cells and were
monitored daily for 14 days.

 Three large-scale bioreactors were also seeded with cells from the same
batch and monitored daily for 14 days

Notes on Data

The intensity values have undergone signal processing up to smoothing. See
the reference for more details.

License

data_pharma_bioreactors()
#> # A tibble: 664,524 x 6
#>    reactor_id   day glucose wave_number intensity size 
#>    <chr>      <int>   <dbl>       <dbl>     <dbl> <chr>
#>  1 S_01           1    24.7         407   0.909   small
#>  2 S_01           1    24.7         408   0.858   small
#>  3 S_01           1    24.7         409   0.766   small
#>  4 S_01           1    24.7         410   0.627   small
#>  5 S_01           1    24.7         411   0.448   small
#>  6 S_01           1    24.7         412   0.236   small
#>  7 S_01           1    24.7         413   0.00707 small
#>  8 S_01           1    24.7         414  -0.222   small
#>  9 S_01           1    24.7         415  -0.438   small
#> 10 S_01           1    24.7         416  -0.629   small
#> # i 664,514 more rows
…
total_costThe total cost of the trip, in USD. This is the
sum of the previous three columns plus tip.

payment_typeType of payment for the trip. A factor with levels
"Credit Card", "Dispute", "Mobile", "No Charge", "Prcard", and "Unknown".

Value

tibble

tibble print

data_taxi()
#> # A tibble: 10,000 x 7
#>    tip   distance company                      local dow   month  hour
#>    <fct>    <dbl> <fct>                        <fct> <fct> <fct> <int>
#>  1 yes      17.2  Chicago Independents         no    Thu   Feb      16
#>  2 yes       0.88 City Service                 yes   Thu   Mar       8
#>  3 yes      18.1  other                        no    Mon   Feb      18
#>  4 yes      20.7  Chicago Independents         no    Mon   Apr       8
#>  5 yes      12.2  Chicago Independents         no    Sun   Mar      21
#>  6 yes       0.94 Sun Taxi                     yes   Sat   Apr      23
#>  7 yes      17.5  Flash Cab                    no    Fri   Mar      12
#>  8 yes      17.7  other                        no    Sun   Jan       6
#>  9 yes       1.85 Taxicab Insurance Agency Llc no    Fri   Apr      12
#> 10 yes       1.47 City Service                 no    Tue   Mar      14
#> # i 9,990 more rows
…
Value

tibble

tibble print

attach_small_fine_foods()
#> The following data sets have been loaded:
#> `training_data`, `testing_data`
#> Silence this message by setting `quiet = TRUE`.

training_data
#> # A tibble: 4,000 x 3
#>    product    review                                                       score
#>    <chr>      <chr>                                                        <fct>
#>  1 B000J0LSBG "this stuff is  not stuffing  its  not good at all  save yo~ other
#>  2 B000EYLDYE "I absolutely LOVE this dried fruit.  LOVE IT.  Whenever I ~ great
#>  3 B0026LIO9A "GREAT DEAL, CONVENIENT TOO.  Much cheaper than WalMart and~ great
#>  4 B00473P8SK "Great flavor, we go through a ton of this sauce! I discove~ great
#>  5 B001SAWTNM "This is excellent salsa/hot sauce, but you can get it for ~ great
#>  6 B000FAG90U "Again, this is the best dogfood out there.  One suggestion~ great
#>  7 B006BXTCEK "The box I received was filled with teas, hot chocolates, a~ other
#>  8 B002GWH5OY "This is delicious coffee which compares favorably with muc~ great
#>  9 B003R0MFYY "Don't let these little tiny cans fool you.  They pack a lo~ great
#> 10 B001EO5ZXI "One of the nicest, smoothest cup of chai I've made. Nice m~ great
#> # i 3,990 more rows
testing_data
#> # A tibble: 1,000 x 3
#>    product    review                                                       score
#>    <chr>      <chr>                                                        <fct>
#>  1 B005GXFP60 "These are the best tasting gummy fruits I have ever eaten.~ great
#>  2 B000G7V394 "I have been a consumer of Snyders hard sourdough pretzels ~ great
#>  3 B004WJAULO "This tastes so bad, I'm considering throwing it away.  But~ other
#>  4 B003D4MBOS "This product is way too pricey to have so little chocolate~ other
#>  5 B0030Z95B2 "I bought this for my Mom as a gift to accompany her Dolce ~ great
#>  6 B000LRH4WE "This thing is 7 dollars in US?I know its exported from Cyp~ other
#>  7 B000Z91SZW "This tea tastes like hot cocoa.  Very pleasant experience.~ other
#>  8 B00563VNEI "This product is great for a quick cup of coffee. If you us~ great
#>  9 B0085NFX2O "Grilled out brats, chicken, and burgers for the entire fam~ great
#> 10 B000LRH7XK "I ordered 4 cans of this product.  The product is fine, bu~ other
#> # i 990 more rows
…
