Help for package parsnip
…
qr_pred <- predict(qr_fit, Chicago_test)
qr_pred

## # A tibble: 7 x 1
##   .pred_quantile
##        <qtls(3)>
## 1         [21.1]
## 2         [21.4]
## 3         [21.7]
## 4         [21.4]
## 5         [19.5]
## 6         [6.88]
## # i 1 more row

We can unnest these values and/or convert them to a rectangular format:

as_tibble(qr_pred$.pred_quantile)

## # A tibble: 21 x 3
##   .pred_quantile .quantile_levels  .row
##            <dbl>            <dbl> <int>
## 1           20.6             0.25     1
## 2           21.1             0.5      1
## 3           21.5             0.75     1
## 4           20.9             0.25     2
## 5           21.4             0.5      2
## 6           21.8             0.75     2
## # i 15 more rows
…
Tidying the model object

broom::tidy() is a function that gives a summary of
the object as a tibble.

tl;dr tidy() on a glmnet model produced by parsnip gives the
coefficients for the value given by penalty.

When parsnip makes a model, it gives it an extra class. Use the tidy()
method on the object, it produces coefficients for the penalty that was
originally requested:

tidy(fit)

## # A tibble: 11 x 3
##   term        estimate penalty
##   <chr>          <dbl>   <dbl>
## 1 (Intercept)  35.3          1
## 2 cyl          -0.872        1
## 3 disp          0            1
## 4 hp           -0.0101       1
## 5 drat          0            1
## 6 wt           -2.59         1
## # i 5 more rows

Note that there is a tidy() method for glmnet objects in the broom
package. If this is used directly on the underlying glmnet object, it
returns all of coefficients on the path:

# Use the basic tidy() method for glmnet
all_tidy_coefs <- broom:::tidy.glmnet(fit$fit)
all_tidy_coefs

## # A tibble: 640 x 5
##   term         step estimate lambda dev.ratio
##   <chr>       <dbl>    <dbl>  <dbl>     <dbl>
## 1 (Intercept)     1     20.1   5.15     0    
## 2 (Intercept)     2     21.6   4.69     0.129
## 3 (Intercept)     3     23.2   4.27     0.248
## 4 (Intercept)     4     24.7   3.89     0.347
## 5 (Intercept)     5     26.0   3.55     0.429
## 6 (Intercept)     6     27.2   3.23     0.497
## # i 634 more rows
…
