Help for package pointblank
…
game_revenue_2 <-
  game_revenue %>%
  dplyr::mutate(
    time_left = 
      lubridate::ymd_hms(
        "2015-02-01 00:00:00"
      ) - session_start
  )

game_revenue_2
#> # A tibble: 2,000 x 12
#>    player_id       session_id  session_start       time                item_type
#>    <chr>           <chr>       <dttm>              <dttm>              <chr>    
#>  1 ECPANOIXLZHF896 ECPANOIXLZ~ 2015-01-01 01:31:03 2015-01-01 01:31:27 iap      
#>  2 ECPANOIXLZHF896 ECPANOIXLZ~ 2015-01-01 01:31:03 2015-01-01 01:36:57 iap      
#>  3 ECPANOIXLZHF896 ECPANOIXLZ~ 2015-01-01 01:31:03 2015-01-01 01:37:45 iap      
#>  4 ECPANOIXLZHF896 ECPANOIXLZ~ 2015-01-01 01:31:03 2015-01-01 01:42:33 ad       
#>  5 ECPANOIXLZHF896 ECPANOIXLZ~ 2015-01-01 11:50:02 2015-01-01 11:55:20 ad       
#>  6 ECPANOIXLZHF896 ECPANOIXLZ~ 2015-01-01 11:50:02 2015-01-01 12:08:56 ad       
#>  7 ECPANOIXLZHF896 ECPANOIXLZ~ 2015-01-01 11:50:02 2015-01-01 12:14:08 ad       
#>  8 ECPANOIXLZHF896 ECPANOIXLZ~ 2015-01-01 11:50:02 2015-01-01 12:21:44 ad       
#>  9 ECPANOIXLZHF896 ECPANOIXLZ~ 2015-01-01 11:50:02 2015-01-01 12:24:20 ad       
#> 10 FXWUORGYNJAE271 FXWUORGYNJ~ 2015-01-01 15:17:18 2015-01-01 15:19:36 ad       
#> # i 1,990 more rows
#> # i 7 more variables: item_name <chr>, item_revenue <dbl>,
#> #   session_duration <dbl>, start_day <date>, acquisition <chr>, country <chr>,
#> #   time_left <drtn>
…
In practice, both of these will often be shorter as only the columns
argument requires a value. Arguments with default values won't be written to
YAML when using yaml_write() (though it is acceptable to include them with
their default when generating the YAML by other means). It is also possible
to preview the transformation of an agent to YAML without any writing to disk
by using the yaml_agent_string() function.

Examples

The game_revenue dataset in the package has the column session_start,
which contains date-time values. Let's ensure that this column has values
that are increasing from top to bottom.

game_revenue
#> # A tibble: 2,000 x 11
#>    player_id       session_id  session_start       time                item_type
#>    <chr>           <chr>       <dttm>              <dttm>              <chr>    
#>  1 ECPANOIXLZHF896 ECPANOIXLZ~ 2015-01-01 01:31:03 2015-01-01 01:31:27 iap      
#>  2 ECPANOIXLZHF896 ECPANOIXLZ~ 2015-01-01 01:31:03 2015-01-01 01:36:57 iap      
#>  3 ECPANOIXLZHF896 ECPANOIXLZ~ 2015-01-01 01:31:03 2015-01-01 01:37:45 iap      
#>  4 ECPANOIXLZHF896 ECPANOIXLZ~ 2015-01-01 01:31:03 2015-01-01 01:42:33 ad       
#>  5 ECPANOIXLZHF896 ECPANOIXLZ~ 2015-01-01 11:50:02 2015-01-01 11:55:20 ad       
#>  6 ECPANOIXLZHF896 ECPANOIXLZ~ 2015-01-01 11:50:02 2015-01-01 12:08:56 ad       
#>  7 ECPANOIXLZHF896 ECPANOIXLZ~ 2015-01-01 11:50:02 2015-01-01 12:14:08 ad       
#>  8 ECPANOIXLZHF896 ECPANOIXLZ~ 2015-01-01 11:50:02 2015-01-01 12:21:44 ad       
#>  9 ECPANOIXLZHF896 ECPANOIXLZ~ 2015-01-01 11:50:02 2015-01-01 12:24:20 ad       
#> 10 FXWUORGYNJAE271 FXWUORGYNJ~ 2015-01-01 15:17:18 2015-01-01 15:19:36 ad       
#> # i 1,990 more rows
#> # i 6 more variables: item_name <chr>, item_revenue <dbl>,
#> #   session_duration <dbl>, start_day <date>, acquisition <chr>, country <chr>
…
 DuckDB tables (through duckdb::duckdb())

 SQLite (with RSQLite::SQLite())

Other database tables may work to varying degrees but they haven't been
formally tested (so be mindful of this when using unsupported backends with
pointblank).

Examples

Let's draft a validation plan for the dplyr::storms dataset.

dplyr::storms
#> # A tibble: 19,537 x 13
#>    name   year month   day  hour   lat  long status      category  wind pressure
#>    <chr> <dbl> <dbl> <int> <dbl> <dbl> <dbl> <fct>          <dbl> <int>    <int>
#>  1 Amy    1975     6    27     0  27.5 -79   tropical d~       NA    25     1013
#>  2 Amy    1975     6    27     6  28.5 -79   tropical d~       NA    25     1013
#>  3 Amy    1975     6    27    12  29.5 -79   tropical d~       NA    25     1013
#>  4 Amy    1975     6    27    18  30.5 -79   tropical d~       NA    25     1013
#>  5 Amy    1975     6    28     0  31.5 -78.8 tropical d~       NA    25     1012
#>  6 Amy    1975     6    28     6  32.4 -78.7 tropical d~       NA    25     1012
#>  7 Amy    1975     6    28    12  33.3 -78   tropical d~       NA    25     1011
#>  8 Amy    1975     6    28    18  34   -77   tropical d~       NA    30     1006
#>  9 Amy    1975     6    29     0  34.4 -75.8 tropical s~       NA    35     1004
#> 10 Amy    1975     6    29     6  34   -74.8 tropical s~       NA    40     1002
#> # i 19,527 more rows
#> # i 2 more variables: tropicalstorm_force_diameter <int>,
#> #   hurricane_force_diameter <int>
…
Examples

Let's use the game_revenue dataset, included in the pointblank package,
as the input table for the first demo. It has entries in the first 21 days of
2015 and we'll move all of the date and date-time values to the beginning of
2021 with the tt_time_shift() function and the "6y" time_shift
specification.

tt_time_shift(
  tbl = game_revenue,
  time_shift = "6y"
)
#> # A tibble: 2,000 x 11
#>    player_id       session_id  session_start       time                item_type
#>    <chr>           <chr>       <dttm>              <dttm>              <chr>    
#>  1 ECPANOIXLZHF896 ECPANOIXLZ~ 2021-01-01 01:31:03 2021-01-01 01:31:27 iap      
#>  2 ECPANOIXLZHF896 ECPANOIXLZ~ 2021-01-01 01:31:03 2021-01-01 01:36:57 iap      
#>  3 ECPANOIXLZHF896 ECPANOIXLZ~ 2021-01-01 01:31:03 2021-01-01 01:37:45 iap      
#>  4 ECPANOIXLZHF896 ECPANOIXLZ~ 2021-01-01 01:31:03 2021-01-01 01:42:33 ad       
#>  5 ECPANOIXLZHF896 ECPANOIXLZ~ 2021-01-01 11:50:02 2021-01-01 11:55:20 ad       
#>  6 ECPANOIXLZHF896 ECPANOIXLZ~ 2021-01-01 11:50:02 2021-01-01 12:08:56 ad       
#>  7 ECPANOIXLZHF896 ECPANOIXLZ~ 2021-01-01 11:50:02 2021-01-01 12:14:08 ad       
#>  8 ECPANOIXLZHF896 ECPANOIXLZ~ 2021-01-01 11:50:02 2021-01-01 12:21:44 ad       
#>  9 ECPANOIXLZHF896 ECPANOIXLZ~ 2021-01-01 11:50:02 2021-01-01 12:24:20 ad       
#> 10 FXWUORGYNJAE271 FXWUORGYNJ~ 2021-01-01 15:17:18 2021-01-01 15:19:36 ad       
#> # i 1,990 more rows
#> # i 6 more variables: item_name <chr>, item_revenue <dbl>,
#> #   session_duration <dbl>, start_day <date>, acquisition <chr>, country <chr>
…
Examples

Let's use the game_revenue dataset, included in the pointblank package,
as the input table for the first demo. It has entries in the first 21 days of
2015 and we'll elect to get all of the records where the time values are
strictly for the first 15 days of 2015. The keep argument has a default of
"left" so all rows where the time column is less than
"2015-01-16 00:00:00" will be kept.

tt_time_slice(
  tbl = game_revenue,
  time_column = "time",
  slice_point = "2015-01-16"
)
#> # A tibble: 1,208 x 11
#>    player_id       session_id  session_start       time                item_type
#>    <chr>           <chr>       <dttm>              <dttm>              <chr>    
#>  1 ECPANOIXLZHF896 ECPANOIXLZ~ 2015-01-01 01:31:03 2015-01-01 01:31:27 iap      
#>  2 ECPANOIXLZHF896 ECPANOIXLZ~ 2015-01-01 01:31:03 2015-01-01 01:36:57 iap      
#>  3 ECPANOIXLZHF896 ECPANOIXLZ~ 2015-01-01 01:31:03 2015-01-01 01:37:45 iap      
#>  4 ECPANOIXLZHF896 ECPANOIXLZ~ 2015-01-01 01:31:03 2015-01-01 01:42:33 ad       
#>  5 ECPANOIXLZHF896 ECPANOIXLZ~ 2015-01-01 11:50:02 2015-01-01 11:55:20 ad       
#>  6 ECPANOIXLZHF896 ECPANOIXLZ~ 2015-01-01 11:50:02 2015-01-01 12:08:56 ad       
#>  7 ECPANOIXLZHF896 ECPANOIXLZ~ 2015-01-01 11:50:02 2015-01-01 12:14:08 ad       
#>  8 ECPANOIXLZHF896 ECPANOIXLZ~ 2015-01-01 11:50:02 2015-01-01 12:21:44 ad       
#>  9 ECPANOIXLZHF896 ECPANOIXLZ~ 2015-01-01 11:50:02 2015-01-01 12:24:20 ad       
#> 10 FXWUORGYNJAE271 FXWUORGYNJ~ 2015-01-01 15:17:18 2015-01-01 15:19:36 ad       
#> # i 1,198 more rows
#> # i 6 more variables: item_name <chr>, item_revenue <dbl>,
#> #   session_duration <dbl>, start_day <date>, acquisition <chr>, country <chr>
…
