Help for package tidyselect
…
Selection helpers can be used in functions like dplyr::select()
or tidyr::pivot_longer(). Let's first attach the tidyverse:

library(tidyverse)

# For better printing
iris <- as_tibble(iris)

It is a common to have a names of variables in a vector.

vars <- c("Sepal.Length", "Sepal.Width")

iris[, vars]
#> # A tibble: 150 x 2
#>   Sepal.Length Sepal.Width
#>          <dbl>       <dbl>
#> 1          5.1         3.5
#> 2          4.9         3  
#> 3          4.7         3.2
#> 4          4.6         3.1
#> # i 146 more rows

To refer to these variables in selecting function, use all_of():

iris %>% select(all_of(vars))
#> # A tibble: 150 x 2
#>   Sepal.Length Sepal.Width
#>          <dbl>       <dbl>
#> 1          5.1         3.5
#> 2          4.9         3  
#> 3          4.7         3.2
#> 4          4.6         3.1
#> # i 146 more rows

iris %>% pivot_longer(all_of(vars))
#> # A tibble: 300 x 5
#>   Petal.Length Petal.Width Species name         value
#>          <dbl>       <dbl> <fct>   <chr>        <dbl>
#> 1          1.4         0.2 setosa  Sepal.Length   5.1
#> 2          1.4         0.2 setosa  Sepal.Width    3.5
#> 3          1.4         0.2 setosa  Sepal.Length   4.9
#> 4          1.4         0.2 setosa  Sepal.Width    3  
#> # i 296 more rows
…
Use any_of() to allow missing variables:

starwars %>% select(any_of(vars))
#> # A tibble: 87 x 0

any_of() is especially useful to remove variables from a data
frame because calling it again does not cause an error:

iris %>% select(-any_of(vars))
#> # A tibble: 150 x 3
#>   Petal.Length Petal.Width Species
#>          <dbl>       <dbl> <fct>  
#> 1          1.4         0.2 setosa 
#> 2          1.4         0.2 setosa 
#> 3          1.3         0.2 setosa 
#> 4          1.5         0.2 setosa 
#> # i 146 more rows

iris %>% select(-any_of(vars)) %>% select(-any_of(vars))
#> # A tibble: 150 x 3
#>   Petal.Length Petal.Width Species
#>          <dbl>       <dbl> <fct>  
#> 1          1.4         0.2 setosa 
#> 2          1.4         0.2 setosa 
#> 3          1.3         0.2 setosa 
#> 4          1.5         0.2 setosa 
#> # i 146 more rows
…
Examples

Selection helpers can be used in functions like dplyr::select()
or tidyr::pivot_longer(). Let's first attach the tidyverse:

library(tidyverse)

# For better printing
iris <- as_tibble(iris)
mtcars <- as_tibble(mtcars)

Use everything() to select all variables:

iris %>% select(everything())
#> # A tibble: 150 x 5
#>   Sepal.Length Sepal.Width Petal.Length Petal.Width Species
#>          <dbl>       <dbl>        <dbl>       <dbl> <fct>  
#> 1          5.1         3.5          1.4         0.2 setosa 
#> 2          4.9         3            1.4         0.2 setosa 
#> 3          4.7         3.2          1.3         0.2 setosa 
#> 4          4.6         3.1          1.5         0.2 setosa 
#> # i 146 more rows

mtcars %>% pivot_longer(everything())
#> # A tibble: 352 x 2
#>   name  value
#>   <chr> <dbl>
#> 1 mpg      21
#> 2 cyl       6
#> 3 disp    160
#> 4 hp      110
#> # i 348 more rows

Use last_col() to select the last variable:

iris %>% select(last_col())
#> # A tibble: 150 x 1
#>   Species
#>   <fct>  
#> 1 setosa 
#> 2 setosa 
#> 3 setosa 
#> 4 setosa 
#> # i 146 more rows

mtcars %>% pivot_longer(last_col())
#> # A tibble: 32 x 12
#>     mpg   cyl  disp    hp  drat    wt  qsec    vs    am  gear name  value
#>   <dbl> <dbl> <dbl> <dbl> <dbl> <dbl> <dbl> <dbl> <dbl> <dbl> <chr> <dbl>
#> 1  21       6   160   110  3.9   2.62  16.5     0     1     4 carb      4
#> 2  21       6   160   110  3.9   2.88  17.0     0     1     4 carb      4
#> 3  22.8     4   108    93  3.85  2.32  18.6     1     1     4 carb      1
#> 4  21.4     6   258   110  3.08  3.22  19.4     1     0     3 carb      1
#> # i 28 more rows

Supply an offset n to select a variable located n positions
from the end:

mtcars %>% select(1:last_col(5))
#> # A tibble: 32 x 6
#>     mpg   cyl  disp    hp  drat    wt
#>   <dbl> <dbl> <dbl> <dbl> <dbl> <dbl>
#> 1  21       6   160   110  3.9   2.62
#> 2  21       6   160   110  3.9   2.88
#> 3  22.8     4   108    93  3.85  2.32
#> 4  21.4     6   258   110  3.08  3.22
#> # i 28 more rows
See Also

The selection language page, which includes links to other selection helpers.

FAQ - Note: Using an external vector in selections is ambiguous

Description

Ambiguity between columns and external variables

With selecting functions like dplyr::select() or
tidyr::pivot_longer(), you can refer to variables by name:

mtcars %>% select(cyl, am, vs)
#> # A tibble: 32 x 3
#>     cyl    am    vs
#>   <dbl> <dbl> <dbl>
#> 1     6     1     0
#> 2     6     1     0
#> 3     4     1     1
#> 4     6     0     1
#> # i 28 more rows

mtcars %>% select(mpg:disp)
#> # A tibble: 32 x 3
#>     mpg   cyl  disp
#>   <dbl> <dbl> <dbl>
#> 1  21       6   160
#> 2  21       6   160
#> 3  22.8     4   108
#> 4  21.4     6   258
#> # i 28 more rows
…
my_vars <- c(name, species, ends_with("color"))
#> Error in eval(expr, envir, enclos): object 'name' not found

To make this work you’ll need to do two things:

 Wrap the whole thing in a function

 Use any_of() or all_of() instead of bare variable names

my_vars <- function() {
  c(any_of(c("name", "species")), ends_with("color"))
}
dplyr::select(starwars, my_vars())
#> # A tibble: 87 x 5
#>   name           species hair_color skin_color  eye_color
#>   <chr>          <chr>   <chr>      <chr>       <chr>    
#> 1 Luke Skywalker Human   blond      fair        blue     
#> 2 C-3PO          Droid   <NA>       gold        yellow   
#> 3 R2-D2          Droid   <NA>       white, blue red      
#> 4 Darth Vader    Human   none       white       yellow   
#> # i 83 more rows
…
The selection language can be used in functions like
dplyr::select() or tidyr::pivot_longer(). Let's first attach
the tidyverse:

library(tidyverse)

# For better printing
iris <- as_tibble(iris)

Select variables by name:

starwars %>% select(height)
#> # A tibble: 87 x 1
#>   height
#>    <int>
#> 1    172
#> 2    167
#> 3     96
#> 4    202
#> # i 83 more rows

iris %>% pivot_longer(Sepal.Length)
#> # A tibble: 150 x 6
#>   Sepal.Width Petal.Length Petal.Width Species name         value
#>         <dbl>        <dbl>       <dbl> <fct>   <chr>        <dbl>
#> 1         3.5          1.4         0.2 setosa  Sepal.Length   5.1
#> 2         3            1.4         0.2 setosa  Sepal.Length   4.9
#> 3         3.2          1.3         0.2 setosa  Sepal.Length   4.7
#> 4         3.1          1.5         0.2 setosa  Sepal.Length   4.6
#> # i 146 more rows

Select multiple variables by separating them with commas. Note how
the order of columns is determined by the order of inputs:

starwars %>% select(homeworld, height, mass)
#> # A tibble: 87 x 3
#>   homeworld height  mass
#>   <chr>      <int> <dbl>
#> 1 Tatooine     172    77
#> 2 Tatooine     167    75
#> 3 Naboo         96    32
#> 4 Tatooine     202   136
#> # i 83 more rows

Functions like tidyr::pivot_longer() don't take variables with
dots. In this case use c() to select multiple variables:

iris %>% pivot_longer(c(Sepal.Length, Petal.Length))
#> # A tibble: 300 x 5
#>   Sepal.Width Petal.Width Species name         value
#>         <dbl>       <dbl> <fct>   <chr>        <dbl>
#> 1         3.5         0.2 setosa  Sepal.Length   5.1
#> 2         3.5         0.2 setosa  Petal.Length   1.4
#> 3         3           0.2 setosa  Sepal.Length   4.9
#> 4         3           0.2 setosa  Petal.Length   1.4
#> # i 296 more rows

Operators:

The : operator selects a range of consecutive variables:

starwars %>% select(name:mass)
#> # A tibble: 87 x 3
#>   name           height  mass
#>   <chr>           <int> <dbl>
#> 1 Luke Skywalker    172    77
#> 2 C-3PO             167    75
#> 3 R2-D2              96    32
#> 4 Darth Vader       202   136
#> # i 83 more rows

The ! operator negates a selection:

starwars %>% select(!(name:mass))
#> # A tibble: 87 x 11
#>   hair_color skin_color  eye_color birth_year sex   gender    homeworld species
#>   <chr>      <chr>       <chr>          <dbl> <chr> <chr>     <chr>     <chr>  
#> 1 blond      fair        blue            19   male  masculine Tatooine  Human  
#> 2 <NA>       gold        yellow         112   none  masculine Tatooine  Droid  
#> 3 <NA>       white, blue red             33   none  masculine Naboo     Droid  
#> 4 none       white       yellow          41.9 male  masculine Tatooine  Human  
#> # i 83 more rows
#> # i 3 more variables: films <list>, vehicles <list>, starships <list>

iris %>% select(!c(Sepal.Length, Petal.Length))
#> # A tibble: 150 x 3
#>   Sepal.Width Petal.Width Species
#>         <dbl>       <dbl> <fct>  
#> 1         3.5         0.2 setosa 
#> 2         3           0.2 setosa 
#> 3         3.2         0.2 setosa 
#> 4         3.1         0.2 setosa 
#> # i 146 more rows

iris %>% select(!ends_with("Width"))
#> # A tibble: 150 x 3
#>   Sepal.Length Petal.Length Species
#>          <dbl>        <dbl> <fct>  
#> 1          5.1          1.4 setosa 
#> 2          4.9          1.4 setosa 
#> 3          4.7          1.3 setosa 
#> 4          4.6          1.5 setosa 
#> # i 146 more rows

& and | take the intersection or the union of two selections:

iris %>% select(starts_with("Petal") & ends_with("Width"))
#> # A tibble: 150 x 1
#>   Petal.Width
#>         <dbl>
#> 1         0.2
#> 2         0.2
#> 3         0.2
#> 4         0.2
#> # i 146 more rows

iris %>% select(starts_with("Petal") | ends_with("Width"))
#> # A tibble: 150 x 3
#>   Petal.Length Petal.Width Sepal.Width
#>          <dbl>       <dbl>       <dbl>
#> 1          1.4         0.2         3.5
#> 2          1.4         0.2         3  
#> 3          1.3         0.2         3.2
#> 4          1.5         0.2         3.1
#> # i 146 more rows

To take the difference between two selections, combine the & and
! operators:

iris %>% select(starts_with("Petal") & !ends_with("Width"))
#> # A tibble: 150 x 1
#>   Petal.Length
#>          <dbl>
#> 1          1.4
#> 2          1.4
#> 3          1.3
#> 4          1.5
#> # i 146 more rows
…
Examples

Selection helpers can be used in functions like dplyr::select()
or tidyr::pivot_longer(). Let's first attach the tidyverse:

library(tidyverse)

# For better printing
iris <- as_tibble(iris)

starts_with() selects all variables matching a prefix and
ends_with() matches a suffix:

iris %>% select(starts_with("Sepal"))
#> # A tibble: 150 x 2
#>   Sepal.Length Sepal.Width
#>          <dbl>       <dbl>
#> 1          5.1         3.5
#> 2          4.9         3  
#> 3          4.7         3.2
#> 4          4.6         3.1
#> # i 146 more rows

iris %>% select(ends_with("Width"))
#> # A tibble: 150 x 2
#>   Sepal.Width Petal.Width
#>         <dbl>       <dbl>
#> 1         3.5         0.2
#> 2         3           0.2
#> 3         3.2         0.2
#> 4         3.1         0.2
#> # i 146 more rows

You can supply multiple prefixes or suffixes. Note how the order of
variables depends on the order of the suffixes and prefixes:

iris %>% select(starts_with(c("Petal", "Sepal")))
#> # A tibble: 150 x 4
#>   Petal.Length Petal.Width Sepal.Length Sepal.Width
#>          <dbl>       <dbl>        <dbl>       <dbl>
#> 1          1.4         0.2          5.1         3.5
#> 2          1.4         0.2          4.9         3  
#> 3          1.3         0.2          4.7         3.2
#> 4          1.5         0.2          4.6         3.1
#> # i 146 more rows

iris %>% select(ends_with(c("Width", "Length")))
#> # A tibble: 150 x 4
#>   Sepal.Width Petal.Width Sepal.Length Petal.Length
#>         <dbl>       <dbl>        <dbl>        <dbl>
#> 1         3.5         0.2          5.1          1.4
#> 2         3           0.2          4.9          1.4
#> 3         3.2         0.2          4.7          1.3
#> 4         3.1         0.2          4.6          1.5
#> # i 146 more rows

contains() selects columns whose names contain a word:

iris %>% select(contains("al"))
#> # A tibble: 150 x 4
#>   Sepal.Length Sepal.Width Petal.Length Petal.Width
#>          <dbl>       <dbl>        <dbl>       <dbl>
#> 1          5.1         3.5          1.4         0.2
#> 2          4.9         3            1.4         0.2
#> 3          4.7         3.2          1.3         0.2
#> 4          4.6         3.1          1.5         0.2
#> # i 146 more rows

starts_with(), ends_with(), and contains() do not use regular expressions. To select with a
regexp use matches():

# [pt] is matched literally:
iris %>% select(contains("[pt]al"))
#> # A tibble: 150 x 0

# [pt] is interpreted as a regular expression
iris %>% select(matches("[pt]al"))
#> # A tibble: 150 x 4
#>   Sepal.Length Sepal.Width Petal.Length Petal.Width
#>          <dbl>       <dbl>        <dbl>       <dbl>
#> 1          5.1         3.5          1.4         0.2
#> 2          4.9         3            1.4         0.2
#> 3          4.7         3.2          1.3         0.2
#> 4          4.6         3.1          1.5         0.2
#> # i 146 more rows

starts_with() selects all variables starting with a prefix. To
select a range, use num_range(). Compare:

billboard %>% select(starts_with("wk"))
#> # A tibble: 317 x 76
#>     wk1   wk2   wk3   wk4   wk5   wk6   wk7   wk8   wk9  wk10  wk11  wk12  wk13
#>   <dbl> <dbl> <dbl> <dbl> <dbl> <dbl> <dbl> <dbl> <dbl> <dbl> <dbl> <dbl> <dbl>
#> 1    87    82    72    77    87    94    99    NA    NA    NA    NA    NA    NA
#> 2    91    87    92    NA    NA    NA    NA    NA    NA    NA    NA    NA    NA
#> 3    81    70    68    67    66    57    54    53    51    51    51    51    47
#> 4    76    76    72    69    67    65    55    59    62    61    61    59    61
#> # i 313 more rows
#> # i 63 more variables: wk14 <dbl>, wk15 <dbl>, wk16 <dbl>, wk17 <dbl>,
#> #   wk18 <dbl>, wk19 <dbl>, wk20 <dbl>, wk21 <dbl>, ...

billboard %>% select(num_range("wk", 10:15))
#> # A tibble: 317 x 6
#>    wk10  wk11  wk12  wk13  wk14  wk15
#>   <dbl> <dbl> <dbl> <dbl> <dbl> <dbl>
#> 1    NA    NA    NA    NA    NA    NA
#> 2    NA    NA    NA    NA    NA    NA
#> 3    51    51    51    47    44    38
#> 4    61    61    59    61    66    72
#> # i 313 more rows
…
# For better printing
iris <- as_tibble(iris)

where() takes a function and returns all variables for which the
function returns TRUE:

is.factor(iris[[4]])
#> [1] FALSE

is.factor(iris[[5]])
#> [1] TRUE

iris %>% select(where(is.factor))
#> # A tibble: 150 x 1
#>   Species
#>   <fct>  
#> 1 setosa 
#> 2 setosa 
#> 3 setosa 
#> 4 setosa 
#> # i 146 more rows

is.numeric(iris[[4]])
#> [1] TRUE

is.numeric(iris[[5]])
#> [1] FALSE

iris %>% select(where(is.numeric))
#> # A tibble: 150 x 4
#>   Sepal.Length Sepal.Width Petal.Length Petal.Width
#>          <dbl>       <dbl>        <dbl>       <dbl>
#> 1          5.1         3.5          1.4         0.2
#> 2          4.9         3            1.4         0.2
#> 3          4.7         3.2          1.3         0.2
#> 4          4.6         3.1          1.5         0.2
#> # i 146 more rows

The formula shorthand

You can use purrr-like formulas as a shortcut for creating a
function on the spot. These expressions are equivalent:

iris %>% select(where(is.numeric))
#> # A tibble: 150 x 4
#>   Sepal.Length Sepal.Width Petal.Length Petal.Width
#>          <dbl>       <dbl>        <dbl>       <dbl>
#> 1          5.1         3.5          1.4         0.2
#> 2          4.9         3            1.4         0.2
#> 3          4.7         3.2          1.3         0.2
#> 4          4.6         3.1          1.5         0.2
#> # i 146 more rows

iris %>% select(where(function(x) is.numeric(x)))
#> # A tibble: 150 x 4
#>   Sepal.Length Sepal.Width Petal.Length Petal.Width
#>          <dbl>       <dbl>        <dbl>       <dbl>
#> 1          5.1         3.5          1.4         0.2
#> 2          4.9         3            1.4         0.2
#> 3          4.7         3.2          1.3         0.2
#> 4          4.6         3.1          1.5         0.2
#> # i 146 more rows

iris %>% select(where(~ is.numeric(.x)))
#> # A tibble: 150 x 4
#>   Sepal.Length Sepal.Width Petal.Length Petal.Width
#>          <dbl>       <dbl>        <dbl>       <dbl>
#> 1          5.1         3.5          1.4         0.2
#> 2          4.9         3            1.4         0.2
#> 3          4.7         3.2          1.3         0.2
#> 4          4.6         3.1          1.5         0.2
#> # i 146 more rows

The shorthand is useful for adding logic inline. Here we select all
numeric variables whose mean is greater than 3.5:

iris %>% select(where(~ is.numeric(.x) && mean(.x) > 3.5))
#> # A tibble: 150 x 2
#>   Sepal.Length Petal.Length
#>          <dbl>        <dbl>
#> 1          5.1          1.4
#> 2          4.9          1.4
#> 3          4.7          1.3
#> 4          4.6          1.5
#> # i 146 more rows
